module main.go

go 1.19

require (
	github.com/golang/protobuf v1.5.3
	github.com/prometheus/client_golang v1.15.1
	github.com/prometheus/client_model v0.4.0
)

require (
	github.com/beorn7/perks v1.0.1 // indirect
	github.com/cespare/xxhash/v2 v2.2.0 // indirect
	github.com/matttproud/golang_protobuf_extensions v1.0.4 // indirect
	github.com/prometheus/common v0.42.0 // indirect
	github.com/prometheus/procfs v0.9.0 // indirect
	golang.org/x/sys v0.6.0 // indirect
	google.golang.org/protobuf v1.30.0 // indirect
)
